127.0.0.1 - - [10/Jul/2019:20:09:37 +0300] "GET / HTTP/1.1" 404 1074
0:0:0:0:0:0:0:1 - - [10/Jul/2019:20:09:38 +0300] "GET /Java_Summer_School/hello HTTP/1.1" 404 1102
127.0.0.1 - - [10/Jul/2019:20:09:59 +0300] "GET / HTTP/1.1" 404 1078
0:0:0:0:0:0:0:1 - - [10/Jul/2019:20:09:59 +0300] "GET /hello HTTP/1.1" 404 1078
127.0.0.1 - - [10/Jul/2019:20:10:34 +0300] "GET / HTTP/1.1" 404 1078
0:0:0:0:0:0:0:1 - - [10/Jul/2019:20:10:35 +0300] "GET /hello HTTP/1.1" 404 1078
127.0.0.1 - - [10/Jul/2019:20:11:34 +0300] "GET / HTTP/1.1" 404 1078
0:0:0:0:0:0:0:1 - - [10/Jul/2019:20:11:35 +0300] "GET /hello HTTP/1.1" 404 1078
0:0:0:0:0:0:0:1 - - [10/Jul/2019:20:12:39 +0300] "GET /hello HTTP/1.1" 404 1078
127.0.0.1 - - [10/Jul/2019:20:13:06 +0300] "GET / HTTP/1.1" 404 1078
0:0:0:0:0:0:0:1 - - [10/Jul/2019:20:13:06 +0300] "GET /hello HTTP/1.1" 404 1078
127.0.0.1 - - [10/Jul/2019:20:13:28 +0300] "GET / HTTP/1.1" 200 263
0:0:0:0:0:0:0:1 - - [10/Jul/2019:20:13:29 +0300] "GET /hello HTTP/1.1" 200 47
0:0:0:0:0:0:0:1 - - [10/Jul/2019:20:14:28 +0300] "GET /helloworld/helloworld.jsp HTTP/1.1" 200 273
0:0:0:0:0:0:0:1 - - [10/Jul/2019:20:15:48 +0300] "GET /scriptlets/scriptlets.jsp HTTP/1.1" 200 297
0:0:0:0:0:0:0:1 - - [10/Jul/2019:20:19:09 +0300] "GET /scriptlets/expressions.jsp HTTP/1.1" 200 264
0:0:0:0:0:0:0:1 - - [10/Jul/2019:20:19:24 +0300] "GET /scriptlets/expressions.jsp HTTP/1.1" 200 264
0:0:0:0:0:0:0:1 - - [10/Jul/2019:20:20:47 +0300] "GET /scriptlets/declaratipns.jsp HTTP/1.1" 200 257
127.0.0.1 - - [10/Jul/2019:20:23:31 +0300] "GET / HTTP/1.1" 200 263
0:0:0:0:0:0:0:1 - - [10/Jul/2019:20:23:32 +0300] "GET /scriptlets/call-java-code.jsp HTTP/1.1" 200 257
127.0.0.1 - - [10/Jul/2019:20:31:04 +0300] "GET / HTTP/1.1" 200 263
0:0:0:0:0:0:0:1 - - [10/Jul/2019:20:31:05 +0300] "GET /requestparams/request-params-get.jsp HTTP/1.1" 200 393
0:0:0:0:0:0:0:1 - - [10/Jul/2019:20:31:07 +0300] "GET /RequestParamsServlet?username=sayfa HTTP/1.1" 200 34
0:0:0:0:0:0:0:1 - - [10/Jul/2019:20:31:14 +0300] "GET /requestparams/request-params-post.jsp HTTP/1.1" 200 394
0:0:0:0:0:0:0:1 - - [10/Jul/2019:20:31:16 +0300] "POST /RequestParamsServlet HTTP/1.1" 200 33
127.0.0.1 - - [10/Jul/2019:20:35:07 +0300] "GET / HTTP/1.1" 200 263
0:0:0:0:0:0:0:1 - - [10/Jul/2019:20:35:08 +0300] "GET /HelloWorldStyledServlet HTTP/1.1" 500 276
127.0.0.1 - - [10/Jul/2019:20:35:22 +0300] "GET / HTTP/1.1" 200 263
0:0:0:0:0:0:0:1 - - [10/Jul/2019:20:35:22 +0300] "GET /HelloWorldStyledServlet HTTP/1.1" 200 180
0:0:0:0:0:0:0:1 - - [10/Jul/2019:20:36:16 +0300] "GET /helloworldstyled/hello-world-styled.jsp HTTP/1.1" 200 444
127.0.0.1 - - [10/Jul/2019:20:38:49 +0300] "GET / HTTP/1.1" 200 263
0:0:0:0:0:0:0:1 - - [10/Jul/2019:20:38:50 +0300] "GET /requestdispatcher/userform.jsp HTTP/1.1" 200 399
0:0:0:0:0:0:0:1 - - [10/Jul/2019:20:38:52 +0300] "GET /RequestDispatcherExample?username=sad HTTP/1.1" 200 267
0:0:0:0:0:0:0:1 - - [10/Jul/2019:20:39:56 +0300] "GET /req-dispatcher.jsp HTTP/1.1" 200 387
0:0:0:0:0:0:0:1 - - [10/Jul/2019:20:40:00 +0300] "POST /req-dispatcher HTTP/1.1" 200 309
0:0:0:0:0:0:0:1 - - [10/Jul/2019:20:40:39 +0300] "GET /requestdispatcher/ex-5.jsp HTTP/1.1" 200 387
0:0:0:0:0:0:0:1 - - [10/Jul/2019:20:40:45 +0300] "POST /redirect HTTP/1.1" 404 254
127.0.0.1 - - [10/Jul/2019:20:42:14 +0300] "GET / HTTP/1.1" 200 263
0:0:0:0:0:0:0:1 - - [10/Jul/2019:20:42:14 +0300] "GET /requestdispatcher/ex-5.jsp HTTP/1.1" 200 387
0:0:0:0:0:0:0:1 - - [10/Jul/2019:20:42:16 +0300] "POST /redirect HTTP/1.1" 404 254
0:0:0:0:0:0:0:1 - - [10/Jul/2019:20:42:21 +0300] "POST /redirect HTTP/1.1" 404 254
127.0.0.1 - - [10/Jul/2019:20:42:43 +0300] "GET / HTTP/1.1" 200 263
0:0:0:0:0:0:0:1 - - [10/Jul/2019:20:42:44 +0300] "GET /requestdispatcher/ex-5.jsp HTTP/1.1" 200 387
127.0.0.1 - - [10/Jul/2019:20:43:20 +0300] "GET / HTTP/1.1" 200 263
0:0:0:0:0:0:0:1 - - [10/Jul/2019:20:43:20 +0300] "GET /requestdispatcher/ex-5.jsp HTTP/1.1" 200 387
0:0:0:0:0:0:0:1 - - [10/Jul/2019:20:43:29 +0300] "POST /redirect HTTP/1.1" 200 260
127.0.0.1 - - [10/Jul/2019:20:45:57 +0300] "GET / HTTP/1.1" 200 263
0:0:0:0:0:0:0:1 - - [10/Jul/2019:20:45:57 +0300] "GET /servlet/com.obss.javasummerschool.webxmlservletdefiniton.WebXmlServlet HTTP/1.1" 404 254
127.0.0.1 - - [10/Jul/2019:20:46:22 +0300] "GET / HTTP/1.1" 200 263
0:0:0:0:0:0:0:1 - - [10/Jul/2019:20:46:22 +0300] "GET /servlet/com.obss.javasummerschool.webxmlservletdefiniton.WebXmlServlet HTTP/1.1" 404 254
127.0.0.1 - - [10/Jul/2019:20:47:03 +0300] "GET / HTTP/1.1" 200 263
0:0:0:0:0:0:0:1 - - [10/Jul/2019:20:47:04 +0300] "GET /admin HTTP/1.1" 401 1034
0:0:0:0:0:0:0:1 - - [10/Jul/2019:20:47:09 +0300] "GET /admin HTTP/1.1" 401 1034
0:0:0:0:0:0:0:1 - - [10/Jul/2019:20:47:11 +0300] "GET /admin HTTP/1.1" 401 1034
0:0:0:0:0:0:0:1 - - [10/Jul/2019:20:47:16 +0300] "GET /admin HTTP/1.1" 401 1034
0:0:0:0:0:0:0:1 - - [10/Jul/2019:20:47:17 +0300] "GET /admin HTTP/1.1" 401 1034
127.0.0.1 - - [10/Jul/2019:20:48:01 +0300] "GET / HTTP/1.1" 404 1074
0:0:0:0:0:0:0:1 - - [10/Jul/2019:20:48:02 +0300] "GET /Java_Summer_School/admin HTTP/1.1" 401 1034
0:0:0:0:0:0:0:1 - admin [10/Jul/2019:20:48:05 +0300] "GET /Java_Summer_School/admin HTTP/1.1" 200 51
127.0.0.1 - - [10/Jul/2019:20:49:55 +0300] "GET / HTTP/1.1" 404 1074
0:0:0:0:0:0:0:1 - - [10/Jul/2019:20:49:56 +0300] "GET /Java_Summer_School/req-dispatcher.jsp HTTP/1.1" 200 387
0:0:0:0:0:0:0:1 - - [10/Jul/2019:20:49:59 +0300] "POST /req-dispatcher HTTP/1.1" 404 1088
127.0.0.1 - - [10/Jul/2019:20:59:42 +0300] "GET / HTTP/1.1" 404 1074
127.0.0.1 - - [10/Jul/2019:21:04:07 +0300] "GET / HTTP/1.1" 404 1074
0:0:0:0:0:0:0:1 - - [10/Jul/2019:21:04:08 +0300] "GET /Java_Summer_School/multithreading/atm-not-thread-safe.jsp HTTP/1.1" 200 424
127.0.0.1 - - [10/Jul/2019:21:04:31 +0300] "GET / HTTP/1.1" 200 263
0:0:0:0:0:0:0:1 - - [10/Jul/2019:21:04:32 +0300] "GET /multithreading/atm-not-thread-safe.jsp HTTP/1.1" 200 424
0:0:0:0:0:0:0:1 - - [10/Jul/2019:21:04:38 +0300] "GET /multithreading/atm-not-thread-safe.jsp HTTP/1.1" 200 424
0:0:0:0:0:0:0:1 - - [10/Jul/2019:21:04:44 +0300] "GET /multithreading/atm-not-thread-safe.jsp HTTP/1.1" 200 424
0:0:0:0:0:0:0:1 - - [10/Jul/2019:21:05:03 +0300] "POST /multithreading/AtmServletNotThreadSafe HTTP/1.1" 404 254
0:0:0:0:0:0:0:1 - - [10/Jul/2019:21:05:05 +0300] "POST /multithreading/AtmServletNotThreadSafe HTTP/1.1" 404 254
127.0.0.1 - - [10/Jul/2019:21:05:47 +0300] "GET / HTTP/1.1" 200 263
0:0:0:0:0:0:0:1 - - [10/Jul/2019:21:05:48 +0300] "GET /multithreading/atm-not-thread-safe.jsp HTTP/1.1" 200 424
0:0:0:0:0:0:0:1 - - [10/Jul/2019:21:05:50 +0300] "POST /multithreading/AtmServletNotThreadSafe HTTP/1.1" 404 254
0:0:0:0:0:0:0:1 - - [10/Jul/2019:21:06:09 +0300] "GET /multithreading/atm-not-thread-safe.jsp HTTP/1.1" 200 425
0:0:0:0:0:0:0:1 - - [10/Jul/2019:21:06:19 +0300] "GET /multithreading/atm-not-thread-safe.jsp HTTP/1.1" 200 425
0:0:0:0:0:0:0:1 - - [10/Jul/2019:21:06:20 +0300] "POST /AtmServletNotThreadSafe HTTP/1.1" 200 26
0:0:0:0:0:0:0:1 - - [10/Jul/2019:21:06:21 +0300] "GET /multithreading/atm-not-thread-safe.jsp HTTP/1.1" 200 425
0:0:0:0:0:0:0:1 - - [10/Jul/2019:21:06:32 +0300] "POST /AtmServletNotThreadSafe HTTP/1.1" 200 26
0:0:0:0:0:0:0:1 - - [10/Jul/2019:21:06:33 +0300] "POST /AtmServletNotThreadSafe HTTP/1.1" 200 26
0:0:0:0:0:0:0:1 - - [10/Jul/2019:21:06:45 +0300] "GET /multithreading/atm-not-thread-safe.jsp HTTP/1.1" 200 425
127.0.0.1 - - [10/Jul/2019:21:06:45 +0300] "GET / HTTP/1.1" 200 263
0:0:0:0:0:0:0:1 - - [10/Jul/2019:21:06:47 +0300] "GET /multithreading/atm-not-thread-safe.jsp HTTP/1.1" 200 425
0:0:0:0:0:0:0:1 - - [10/Jul/2019:21:06:58 +0300] "POST /AtmServletNotThreadSafe HTTP/1.1" 200 26
0:0:0:0:0:0:0:1 - - [10/Jul/2019:21:06:59 +0300] "POST /AtmServletNotThreadSafe HTTP/1.1" 200 26
127.0.0.1 - - [10/Jul/2019:21:07:41 +0300] "GET / HTTP/1.1" 200 263
0:0:0:0:0:0:0:1 - - [10/Jul/2019:21:07:42 +0300] "GET /multithreading/atm-thread-safe.jsp HTTP/1.1" 200 422
0:0:0:0:0:0:0:1 - - [10/Jul/2019:21:07:47 +0300] "GET /multithreading/atm-thread-safe.jsp HTTP/1.1" 200 422
0:0:0:0:0:0:0:1 - - [10/Jul/2019:21:07:48 +0300] "GET /multithreading/atm-thread-safe.jsp HTTP/1.1" 200 422
0:0:0:0:0:0:0:1 - - [10/Jul/2019:21:08:00 +0300] "POST /AtmServletThreadSafe HTTP/1.1" 200 26
0:0:0:0:0:0:0:1 - - [10/Jul/2019:21:08:05 +0300] "POST /AtmServletThreadSafe HTTP/1.1" 200 26
0:0:0:0:0:0:0:1 - - [10/Jul/2019:21:08:10 +0300] "POST /AtmServletThreadSafe HTTP/1.1" 200 26
0:0:0:0:0:0:0:1 - - [10/Jul/2019:21:08:25 +0300] "GET /multithreading/atm-thread-safe.jsp HTTP/1.1" 200 422
127.0.0.1 - - [10/Jul/2019:21:08:25 +0300] "GET / HTTP/1.1" 200 263
0:0:0:0:0:0:0:1 - - [10/Jul/2019:21:08:27 +0300] "GET /multithreading/atm-thread-safe.jsp HTTP/1.1" 200 422
0:0:0:0:0:0:0:1 - - [10/Jul/2019:21:08:40 +0300] "POST /AtmServletThreadSafe HTTP/1.1" 200 26
0:0:0:0:0:0:0:1 - - [10/Jul/2019:21:08:45 +0300] "POST /AtmServletThreadSafe HTTP/1.1" 200 26
127.0.0.1 - - [10/Jul/2019:21:10:10 +0300] "GET / HTTP/1.1" 200 263
0:0:0:0:0:0:0:1 - - [10/Jul/2019:21:10:10 +0300] "GET / HTTP/1.1" 200 263
0:0:0:0:0:0:0:1 - - [10/Jul/2019:21:10:20 +0300] "GET /sadasd/secured HTTP/1.1" 403 -
0:0:0:0:0:0:0:1 - - [10/Jul/2019:21:10:24 +0300] "GET /sadasd/sad HTTP/1.1" 200 262
127.0.0.1 - - [10/Jul/2019:21:11:11 +0300] "GET / HTTP/1.1" 200 263
0:0:0:0:0:0:0:1 - - [10/Jul/2019:21:11:11 +0300] "GET /AboutPaths/* HTTP/1.1" 200 300
127.0.0.1 - - [10/Jul/2019:21:12:01 +0300] "GET / HTTP/1.1" 200 262
0:0:0:0:0:0:0:1 - - [10/Jul/2019:21:12:02 +0300] "GET / HTTP/1.1" 200 262
127.0.0.1 - - [10/Jul/2019:21:12:21 +0300] "GET / HTTP/1.1" 404 254
0:0:0:0:0:0:0:1 - - [10/Jul/2019:21:12:22 +0300] "GET / HTTP/1.1" 404 254
0:0:0:0:0:0:0:1 - - [10/Jul/2019:21:12:23 +0300] "GET / HTTP/1.1" 404 254
127.0.0.1 - - [10/Jul/2019:21:13:01 +0300] "GET / HTTP/1.1" 200 263
0:0:0:0:0:0:0:1 - - [10/Jul/2019:21:13:03 +0300] "GET / HTTP/1.1" 200 263
127.0.0.1 - - [10/Jul/2019:21:17:35 +0300] "GET / HTTP/1.1" 200 263
0:0:0:0:0:0:0:1 - - [10/Jul/2019:21:17:35 +0300] "GET /ServletContextServlet HTTP/1.1" 200 71
127.0.0.1 - - [10/Jul/2019:21:21:14 +0300] "GET / HTTP/1.1" 200 263
0:0:0:0:0:0:0:1 - - [10/Jul/2019:21:21:14 +0300] "GET /ServletContextServlet HTTP/1.1" 200 71
127.0.0.1 - - [10/Jul/2019:21:22:00 +0300] "GET / HTTP/1.1" 200 263
0:0:0:0:0:0:0:1 - - [10/Jul/2019:21:22:02 +0300] "POST /ServletContextServlet HTTP/1.1" 200 119
127.0.0.1 - - [10/Jul/2019:21:26:13 +0300] "GET / HTTP/1.1" 200 263
0:0:0:0:0:0:0:1 - - [10/Jul/2019:21:26:13 +0300] "GET /HttpSessionSetAttributeServlet HTTP/1.1" 200 32
127.0.0.1 - - [10/Jul/2019:21:28:40 +0300] "GET / HTTP/1.1" 200 263
0:0:0:0:0:0:0:1 - - [10/Jul/2019:21:28:41 +0300] "GET /ResponseRedirectServlet HTTP/1.1" 302 -
0:0:0:0:0:0:0:1 - - [10/Jul/2019:21:28:41 +0300] "GET /redirect HTTP/1.1" 405 1116
127.0.0.1 - - [10/Jul/2019:21:29:32 +0300] "GET / HTTP/1.1" 200 263
0:0:0:0:0:0:0:1 - - [10/Jul/2019:21:29:33 +0300] "GET /ResponseRedirectServlet HTTP/1.1" 302 -
0:0:0:0:0:0:0:1 - - [10/Jul/2019:21:29:33 +0300] "GET /redirectPage HTTP/1.1" 200 22
127.0.0.1 - - [10/Jul/2019:21:30:46 +0300] "GET / HTTP/1.1" 200 263
0:0:0:0:0:0:0:1 - - [10/Jul/2019:21:30:47 +0300] "GET /MainServlet HTTP/1.1" 200 40
0:0:0:0:0:0:0:1 - - [10/Jul/2019:21:35:19 +0300] "GET /servletcollaboration/main.jsp HTTP/1.1" 200 490
127.0.0.1 - - [10/Jul/2019:21:38:48 +0300] "GET / HTTP/1.1" 200 263
0:0:0:0:0:0:0:1 - - [10/Jul/2019:21:38:49 +0300] "GET /ExceptionServlet HTTP/1.1" 500 276
127.0.0.1 - - [10/Jul/2019:21:41:13 +0300] "GET / HTTP/1.1" 200 263
0:0:0:0:0:0:0:1 - - [10/Jul/2019:21:41:14 +0300] "GET /CookieServlet HTTP/1.1" 200 542
0:0:0:0:0:0:0:1 - - [10/Jul/2019:21:41:16 +0300] "POST /CookieServlet HTTP/1.1" 200 118
0:0:0:0:0:0:0:1 - - [10/Jul/2019:21:41:18 +0300] "GET /cookies/main-page.jsp HTTP/1.1" 200 376
127.0.0.1 - - [10/Jul/2019:21:45:28 +0300] "GET / HTTP/1.1" 200 263
0:0:0:0:0:0:0:1 - - [10/Jul/2019:21:45:29 +0300] "GET /hello HTTP/1.1" 200 58
127.0.0.1 - - [10/Jul/2019:21:46:01 +0300] "GET / HTTP/1.1" 200 263
0:0:0:0:0:0:0:1 - - [10/Jul/2019:21:46:07 +0300] "GET /hello HTTP/1.1" 200 58
127.0.0.1 - - [10/Jul/2019:21:46:44 +0300] "GET / HTTP/1.1" 200 263
0:0:0:0:0:0:0:1 - - [10/Jul/2019:21:46:45 +0300] "GET /public/public.jsp HTTP/1.1" 200 305
0:0:0:0:0:0:0:1 - - [10/Jul/2019:21:46:47 +0300] "GET /private/secured.jsp HTTP/1.1" 200 387
0:0:0:0:0:0:0:1 - - [10/Jul/2019:21:46:49 +0300] "POST /LoginServlet HTTP/1.1" 302 -
0:0:0:0:0:0:0:1 - - [10/Jul/2019:21:46:49 +0300] "GET /private/secured.jsp HTTP/1.1" 200 266
0:0:0:0:0:0:0:1 - - [10/Jul/2019:21:46:54 +0300] "GET /private/secured.jsp HTTP/1.1" 200 266
0:0:0:0:0:0:0:1 - - [10/Jul/2019:21:46:55 +0300] "GET /private/secured.jsp HTTP/1.1" 200 266
0:0:0:0:0:0:0:1 - - [10/Jul/2019:21:46:55 +0300] "GET /private/secured.jsp HTTP/1.1" 200 266
0:0:0:0:0:0:0:1 - - [10/Jul/2019:21:46:56 +0300] "GET /private/secured.jsp HTTP/1.1" 200 266
0:0:0:0:0:0:0:1 - - [10/Jul/2019:21:46:56 +0300] "GET /private/secured.jsp HTTP/1.1" 200 266
0:0:0:0:0:0:0:1 - - [10/Jul/2019:21:47:02 +0300] "GET /public/public.jsp HTTP/1.1" 200 305
0:0:0:0:0:0:0:1 - - [10/Jul/2019:21:47:04 +0300] "GET /private/secured.jsp HTTP/1.1" 200 266
127.0.0.1 - - [10/Jul/2019:21:50:29 +0300] "GET / HTTP/1.1" 200 263
0:0:0:0:0:0:0:1 - - [10/Jul/2019:21:50:30 +0300] "GET /sessionAttributes HTTP/1.1" 200 358
0:0:0:0:0:0:0:1 - - [10/Jul/2019:21:50:31 +0300] "POST /logout HTTP/1.1" 200 14
127.0.0.1 - - [10/Jul/2019:22:39:03 +0300] "GET / HTTP/1.1" 200 263
0:0:0:0:0:0:0:1 - - [10/Jul/2019:22:39:04 +0300] "GET /jdbc/TestJdbc HTTP/1.1" 200 120
127.0.0.1 - - [10/Jul/2019:22:48:10 +0300] "GET / HTTP/1.1" 200 263
0:0:0:0:0:0:0:1 - - [10/Jul/2019:22:48:11 +0300] "GET /jdbc/TestJdbc HTTP/1.1" 200 -
127.0.0.1 - - [10/Jul/2019:22:49:15 +0300] "GET / HTTP/1.1" 200 263
0:0:0:0:0:0:0:1 - - [10/Jul/2019:22:49:37 +0300] "GET /jdbc/TestJdbc HTTP/1.1" 200 -
127.0.0.1 - - [10/Jul/2019:22:50:18 +0300] "GET / HTTP/1.1" 200 263
0:0:0:0:0:0:0:1 - - [10/Jul/2019:22:50:20 +0300] "GET /jdbc/TestJdbc HTTP/1.1" 200 -
127.0.0.1 - - [10/Jul/2019:22:50:43 +0300] "GET / HTTP/1.1" 200 263
0:0:0:0:0:0:0:1 - - [10/Jul/2019:22:50:44 +0300] "GET /jdbc/TestJdbc HTTP/1.1" 200 -
127.0.0.1 - - [10/Jul/2019:23:08:23 +0300] "GET / HTTP/1.1" 200 263
0:0:0:0:0:0:0:1 - - [10/Jul/2019:23:08:24 +0300] "GET /jdbc/TestJdbc HTTP/1.1" 200 -
127.0.0.1 - - [10/Jul/2019:23:08:55 +0300] "GET / HTTP/1.1" 200 263
0:0:0:0:0:0:0:1 - - [10/Jul/2019:23:08:56 +0300] "GET /jdbc/TestJdbc HTTP/1.1" 200 40
127.0.0.1 - - [10/Jul/2019:23:09:53 +0300] "GET / HTTP/1.1" 200 263
0:0:0:0:0:0:0:1 - - [10/Jul/2019:23:09:54 +0300] "GET /jdbc/TestJdbc HTTP/1.1" 200 40
127.0.0.1 - - [10/Jul/2019:23:25:47 +0300] "GET / HTTP/1.1" 200 263
0:0:0:0:0:0:0:1 - - [10/Jul/2019:23:25:48 +0300] "GET /jdbc/insert-user.jsp HTTP/1.1" 200 496
0:0:0:0:0:0:0:1 - - [10/Jul/2019:23:25:53 +0300] "POST /InsertUserTestServlet HTTP/1.1" 404 254
0:0:0:0:0:0:0:1 - - [10/Jul/2019:23:26:02 +0300] "GET /jdbc/TestJdbc HTTP/1.1" 200 40
127.0.0.1 - - [10/Jul/2019:23:26:17 +0300] "GET / HTTP/1.1" 200 263
0:0:0:0:0:0:0:1 - - [10/Jul/2019:23:26:17 +0300] "GET /jdbc/insert-user.jsp HTTP/1.1" 200 496
0:0:0:0:0:0:0:1 - - [10/Jul/2019:23:26:30 +0300] "POST /InsertUserTestServlet HTTP/1.1" 404 254
0:0:0:0:0:0:0:1 - - [10/Jul/2019:23:27:17 +0300] "GET /jdbc/InsertUserTestServlet HTTP/1.1" 200 496
0:0:0:0:0:0:0:1 - - [10/Jul/2019:23:27:28 +0300] "POST /InsertUserTestServlet HTTP/1.1" 404 254
127.0.0.1 - - [10/Jul/2019:23:27:55 +0300] "GET / HTTP/1.1" 200 263
0:0:0:0:0:0:0:1 - - [10/Jul/2019:23:27:56 +0300] "GET /jdbc/insert-user.jsp HTTP/1.1" 200 496
0:0:0:0:0:0:0:1 - - [10/Jul/2019:23:28:01 +0300] "POST /InsertUserTestServlet HTTP/1.1" 404 254
127.0.0.1 - - [10/Jul/2019:23:28:46 +0300] "GET / HTTP/1.1" 404 1074
0:0:0:0:0:0:0:1 - - [10/Jul/2019:23:28:47 +0300] "GET /jdbc/insert-user.jsp HTTP/1.1" 200 496
0:0:0:0:0:0:0:1 - - [10/Jul/2019:23:28:57 +0300] "POST /InsertUserTestServlet HTTP/1.1" 404 1095
0:0:0:0:0:0:0:1 - - [10/Jul/2019:23:29:19 +0300] "GET /jdbc/insert-user.jsp HTTP/1.1" 200 496
127.0.0.1 - - [10/Jul/2019:23:29:44 +0300] "GET / HTTP/1.1" 404 1074
0:0:0:0:0:0:0:1 - - [10/Jul/2019:23:29:45 +0300] "GET /insert-user.jsp HTTP/1.1" 200 496
0:0:0:0:0:0:0:1 - - [10/Jul/2019:23:29:50 +0300] "POST /InsertUserTestServlet HTTP/1.1" 200 -
127.0.0.1 - - [10/Jul/2019:23:30:22 +0300] "GET / HTTP/1.1" 404 1074
0:0:0:0:0:0:0:1 - - [10/Jul/2019:23:30:23 +0300] "GET /insert-user.jsp HTTP/1.1" 200 496
0:0:0:0:0:0:0:1 - - [10/Jul/2019:23:30:28 +0300] "POST /InsertUserTestServlet HTTP/1.1" 200 -
